{% if size == 0 || size == "0" || !size %}{% assign size = "24" %}{% endif %}
<svg xmlns="http://www.w3.org/2000/svg" width="{{ size }}" height="{{ size }}" viewBox="0 0 24 24" class="{{ class }}">
    <path fill="currentColor" d="M10,20V14H14V20H19V12H22L12,3L2,12H5V20H10Z" />
</svg>
